dummy-router/dummyR_1x2_dummyTb/MIN_ROUTE_CHAN_WIDTH/mesh_bench_formal.vcd
$date
	Fri Aug  9 12:23:39 2024
$end
$version
	Questa Intel FPGA Edition Version 2023.3
$end
$timescale
	1ps
$end

$scope module mesh_bench_top_formal_verification_random_tb $end
$var reg 1 ! clk [0:0] $end
$var reg 1 " i_data_0_0_ [0:0] $end
$var reg 1 # i_data_0_1_ [0:0] $end
$var reg 1 $ i_data_0_2_ [0:0] $end
$var reg 1 % i_data_0_3_ [0:0] $end
$var reg 1 & i_data_0_4_ [0:0] $end
$var reg 1 ' i_data_0_5_ [0:0] $end
$var reg 1 ( i_data_0_6_ [0:0] $end
$var reg 1 ) i_data_0_7_ [0:0] $end
$var reg 1 * i_data_0_8_ [0:0] $end
$var reg 1 + i_data_0_9_ [0:0] $end
$var reg 1 , i_data_0_10_ [0:0] $end
$var reg 1 - i_data_0_11_ [0:0] $end
$var reg 1 . i_data_0_12_ [0:0] $end
$var reg 1 / i_data_0_13_ [0:0] $end
$var reg 1 0 i_data_0_14_ [0:0] $end
$var reg 1 1 i_data_0_15_ [0:0] $end
$var reg 1 2 i_data_0_16_ [0:0] $end
$var reg 1 3 i_data_0_17_ [0:0] $end
$var reg 1 4 i_data_0_18_ [0:0] $end
$var reg 1 5 i_data_0_19_ [0:0] $end
$var reg 1 6 i_data_0_20_ [0:0] $end
$var reg 1 7 i_data_0_21_ [0:0] $end
$var reg 1 8 i_data_0_22_ [0:0] $end
$var reg 1 9 i_data_0_23_ [0:0] $end
$var reg 1 : i_data_0_24_ [0:0] $end
$var reg 1 ; i_data_0_25_ [0:0] $end
$var reg 1 < i_data_0_26_ [0:0] $end
$var reg 1 = i_data_0_27_ [0:0] $end
$var reg 1 > i_data_0_28_ [0:0] $end
$var reg 1 ? i_data_0_29_ [0:0] $end
$var reg 1 @ i_data_0_30_ [0:0] $end
$var reg 1 A i_data_0_31_ [0:0] $end
$var reg 1 B i_data_0_32_ [0:0] $end
$var reg 1 C i_data_0_33_ [0:0] $end
$var reg 1 D i_data_0_34_ [0:0] $end
$var reg 1 E i_valid_0 [0:0] $end
$var reg 1 F i_vch_0 [0:0] $end
$var reg 1 G i_ack_0_0_ [0:0] $end
$var reg 1 H i_ack_0_1_ [0:0] $end
$var reg 1 I i_lck_0_0_ [0:0] $end
$var reg 1 J i_lck_0_1_ [0:0] $end
$var reg 1 K i_data_1_0_ [0:0] $end
$var reg 1 L i_data_1_1_ [0:0] $end
$var reg 1 M i_data_1_2_ [0:0] $end
$var reg 1 N i_data_1_3_ [0:0] $end
$var reg 1 O i_data_1_4_ [0:0] $end
$var reg 1 P i_data_1_5_ [0:0] $end
$var reg 1 Q i_data_1_6_ [0:0] $end
$var reg 1 R i_data_1_7_ [0:0] $end
$var reg 1 S i_data_1_8_ [0:0] $end
$var reg 1 T i_data_1_9_ [0:0] $end
$var reg 1 U i_data_1_10_ [0:0] $end
$var reg 1 V i_data_1_11_ [0:0] $end
$var reg 1 W i_data_1_12_ [0:0] $end
$var reg 1 X i_data_1_13_ [0:0] $end
$var reg 1 Y i_data_1_14_ [0:0] $end
$var reg 1 Z i_data_1_15_ [0:0] $end
$var reg 1 [ i_data_1_16_ [0:0] $end
$var reg 1 \ i_data_1_17_ [0:0] $end
$var reg 1 ] i_data_1_18_ [0:0] $end
$var reg 1 ^ i_data_1_19_ [0:0] $end
$var reg 1 _ i_data_1_20_ [0:0] $end
$var reg 1 ` i_data_1_21_ [0:0] $end
$var reg 1 a i_data_1_22_ [0:0] $end
$var reg 1 b i_data_1_23_ [0:0] $end
$var reg 1 c i_data_1_24_ [0:0] $end
$var reg 1 d i_data_1_25_ [0:0] $end
$var reg 1 e i_data_1_26_ [0:0] $end
$var reg 1 f i_data_1_27_ [0:0] $end
$var reg 1 g i_data_1_28_ [0:0] $end
$var reg 1 h i_data_1_29_ [0:0] $end
$var reg 1 i i_data_1_30_ [0:0] $end
$var reg 1 j i_data_1_31_ [0:0] $end
$var reg 1 k i_data_1_32_ [0:0] $end
$var reg 1 l i_data_1_33_ [0:0] $end
$var reg 1 m i_data_1_34_ [0:0] $end
$var reg 1 n i_valid_1 [0:0] $end
$var reg 1 o i_vch_1 [0:0] $end
$var reg 1 p i_ack_1_0_ [0:0] $end
$var reg 1 q i_ack_1_1_ [0:0] $end
$var reg 1 r i_lck_1_0_ [0:0] $end
$var reg 1 s i_lck_1_1_ [0:0] $end
$var reg 1 t rst_ [0:0] $end
$var wire 1 u o_data_0_0__gfpga [0] $end
$var wire 1 v o_data_0_1__gfpga [0] $end
$var wire 1 w o_data_0_2__gfpga [0] $end
$var wire 1 x o_data_0_3__gfpga [0] $end
$var wire 1 y o_data_0_4__gfpga [0] $end
$var wire 1 z o_data_0_5__gfpga [0] $end
$var wire 1 { o_data_0_6__gfpga [0] $end
$var wire 1 | o_data_0_7__gfpga [0] $end
$var wire 1 } o_data_0_8__gfpga [0] $end
$var wire 1 ~ o_data_0_9__gfpga [0] $end
$var wire 1 !! o_data_0_10__gfpga [0] $end
$var wire 1 "! o_data_0_11__gfpga [0] $end
$var wire 1 #! o_data_0_12__gfpga [0] $end
$var wire 1 $! o_data_0_13__gfpga [0] $end
$var wire 1 %! o_data_0_14__gfpga [0] $end
$var wire 1 &! o_data_0_15__gfpga [0] $end
$var wire 1 '! o_data_0_16__gfpga [0] $end
$var wire 1 (! o_data_0_17__gfpga [0] $end
$var wire 1 )! o_data_0_18__gfpga [0] $end
$var wire 1 *! o_data_0_19__gfpga [0] $end
$var wire 1 +! o_data_0_20__gfpga [0] $end
$var wire 1 ,! o_data_0_21__gfpga [0] $end
$var wire 1 -! o_data_0_22__gfpga [0] $end
$var wire 1 .! o_data_0_23__gfpga [0] $end
$var wire 1 /! o_data_0_24__gfpga [0] $end
$var wire 1 0! o_data_0_25__gfpga [0] $end
$var wire 1 1! o_data_0_26__gfpga [0] $end
$var wire 1 2! o_data_0_27__gfpga [0] $end
$var wire 1 3! o_data_0_28__gfpga [0] $end
$var wire 1 4! o_data_0_29__gfpga [0] $end
$var wire 1 5! o_data_0_30__gfpga [0] $end
$var wire 1 6! o_data_0_31__gfpga [0] $end
$var wire 1 7! o_data_0_32__gfpga [0] $end
$var wire 1 8! o_data_0_33__gfpga [0] $end
$var wire 1 9! o_data_0_34__gfpga [0] $end
$var wire 1 :! o_valid_0_gfpga [0] $end
$var wire 1 ;! o_vch_0_gfpga [0] $end
$var wire 1 <! o_ack_0_0__gfpga [0] $end
$var wire 1 =! o_ack_0_1__gfpga [0] $end
$var wire 1 >! o_lck_0_0__gfpga [0] $end
$var wire 1 ?! o_lck_0_1__gfpga [0] $end
$var wire 1 @! o_rdy_0_0__gfpga [0] $end
$var wire 1 A! o_rdy_0_1__gfpga [0] $end
$var wire 1 B! o_data_1_0__gfpga [0] $end
$var wire 1 C! o_data_1_1__gfpga [0] $end
$var wire 1 D! o_data_1_2__gfpga [0] $end
$var wire 1 E! o_data_1_3__gfpga [0] $end
$var wire 1 F! o_data_1_4__gfpga [0] $end
$var wire 1 G! o_data_1_5__gfpga [0] $end
$var wire 1 H! o_data_1_6__gfpga [0] $end
$var wire 1 I! o_data_1_7__gfpga [0] $end
$var wire 1 J! o_data_1_8__gfpga [0] $end
$var wire 1 K! o_data_1_9__gfpga [0] $end
$var wire 1 L! o_data_1_10__gfpga [0] $end
$var wire 1 M! o_data_1_11__gfpga [0] $end
$var wire 1 N! o_data_1_12__gfpga [0] $end
$var wire 1 O! o_data_1_13__gfpga [0] $end
$var wire 1 P! o_data_1_14__gfpga [0] $end
$var wire 1 Q! o_data_1_15__gfpga [0] $end
$var wire 1 R! o_data_1_16__gfpga [0] $end
$var wire 1 S! o_data_1_17__gfpga [0] $end
$var wire 1 T! o_data_1_18__gfpga [0] $end
$var wire 1 U! o_data_1_19__gfpga [0] $end
$var wire 1 V! o_data_1_20__gfpga [0] $end
$var wire 1 W! o_data_1_21__gfpga [0] $end
$var wire 1 X! o_data_1_22__gfpga [0] $end
$var wire 1 Y! o_data_1_23__gfpga [0] $end
$var wire 1 Z! o_data_1_24__gfpga [0] $end
$var wire 1 [! o_data_1_25__gfpga [0] $end
$var wire 1 \! o_data_1_26__gfpga [0] $end
$var wire 1 ]! o_data_1_27__gfpga [0] $end
$var wire 1 ^! o_data_1_28__gfpga [0] $end
$var wire 1 _! o_data_1_29__gfpga [0] $end
$var wire 1 `! o_data_1_30__gfpga [0] $end
$var wire 1 a! o_data_1_31__gfpga [0] $end
$var wire 1 b! o_data_1_32__gfpga [0] $end
$var wire 1 c! o_data_1_33__gfpga [0] $end
$var wire 1 d! o_data_1_34__gfpga [0] $end
$var wire 1 e! o_valid_1_gfpga [0] $end
$var wire 1 f! o_vch_1_gfpga [0] $end
$var wire 1 g! o_ack_1_0__gfpga [0] $end
$var wire 1 h! o_ack_1_1__gfpga [0] $end
$var wire 1 i! o_lck_1_0__gfpga [0] $end
$var wire 1 j! o_lck_1_1__gfpga [0] $end
$var wire 1 k! o_rdy_1_0__gfpga [0] $end
$var wire 1 l! o_rdy_1_1__gfpga [0] $end
$var wire 1 m! o_data_0_0__bench [0] $end
$var wire 1 n! o_data_0_1__bench [0] $end
$var wire 1 o! o_data_0_2__bench [0] $end
$var wire 1 p! o_data_0_3__bench [0] $end
$var wire 1 q! o_data_0_4__bench [0] $end
$var wire 1 r! o_data_0_5__bench [0] $end
$var wire 1 s! o_data_0_6__bench [0] $end
$var wire 1 t! o_data_0_7__bench [0] $end
$var wire 1 u! o_data_0_8__bench [0] $end
$var wire 1 v! o_data_0_9__bench [0] $end
$var wire 1 w! o_data_0_10__bench [0] $end
$var wire 1 x! o_data_0_11__bench [0] $end
$var wire 1 y! o_data_0_12__bench [0] $end
$var wire 1 z! o_data_0_13__bench [0] $end
$var wire 1 {! o_data_0_14__bench [0] $end
$var wire 1 |! o_data_0_15__bench [0] $end
$var wire 1 }! o_data_0_16__bench [0] $end
$var wire 1 ~! o_data_0_17__bench [0] $end
$var wire 1 !" o_data_0_18__bench [0] $end
$var wire 1 "" o_data_0_19__bench [0] $end
$var wire 1 #" o_data_0_20__bench [0] $end
$var wire 1 $" o_data_0_21__bench [0] $end
$var wire 1 %" o_data_0_22__bench [0] $end
$var wire 1 &" o_data_0_23__bench [0] $end
$var wire 1 '" o_data_0_24__bench [0] $end
$var wire 1 (" o_data_0_25__bench [0] $end
$var wire 1 )" o_data_0_26__bench [0] $end
$var wire 1 *" o_data_0_27__bench [0] $end
$var wire 1 +" o_data_0_28__bench [0] $end
$var wire 1 ," o_data_0_29__bench [0] $end
$var wire 1 -" o_data_0_30__bench [0] $end
$var wire 1 ." o_data_0_31__bench [0] $end
$var wire 1 /" o_data_0_32__bench [0] $end
$var wire 1 0" o_data_0_33__bench [0] $end
$var wire 1 1" o_data_0_34__bench [0] $end
$var wire 1 2" o_valid_0_bench [0] $end
$var wire 1 3" o_vch_0_bench [0] $end
$var wire 1 4" o_ack_0_0__bench [0] $end
$var wire 1 5" o_ack_0_1__bench [0] $end
$var wire 1 6" o_lck_0_0__bench [0] $end
$var wire 1 7" o_lck_0_1__bench [0] $end
$var wire 1 8" o_rdy_0_0__bench [0] $end
$var wire 1 9" o_rdy_0_1__bench [0] $end
$var wire 1 :" o_data_1_0__bench [0] $end
$var wire 1 ;" o_data_1_1__bench [0] $end
$var wire 1 <" o_data_1_2__bench [0] $end
$var wire 1 =" o_data_1_3__bench [0] $end
$var wire 1 >" o_data_1_4__bench [0] $end
$var wire 1 ?" o_data_1_5__bench [0] $end
$var wire 1 @" o_data_1_6__bench [0] $end
$var wire 1 A" o_data_1_7__bench [0] $end
$var wire 1 B" o_data_1_8__bench [0] $end
$var wire 1 C" o_data_1_9__bench [0] $end
$var wire 1 D" o_data_1_10__bench [0] $end
$var wire 1 E" o_data_1_11__bench [0] $end
$var wire 1 F" o_data_1_12__bench [0] $end
$var wire 1 G" o_data_1_13__bench [0] $end
$var wire 1 H" o_data_1_14__bench [0] $end
$var wire 1 I" o_data_1_15__bench [0] $end
$var wire 1 J" o_data_1_16__bench [0] $end
$var wire 1 K" o_data_1_17__bench [0] $end
$var wire 1 L" o_data_1_18__bench [0] $end
$var wire 1 M" o_data_1_19__bench [0] $end
$var wire 1 N" o_data_1_20__bench [0] $end
$var wire 1 O" o_data_1_21__bench [0] $end
$var wire 1 P" o_data_1_22__bench [0] $end
$var wire 1 Q" o_data_1_23__bench [0] $end
$var wire 1 R" o_data_1_24__bench [0] $end
$var wire 1 S" o_data_1_25__bench [0] $end
$var wire 1 T" o_data_1_26__bench [0] $end
$var wire 1 U" o_data_1_27__bench [0] $end
$var wire 1 V" o_data_1_28__bench [0] $end
$var wire 1 W" o_data_1_29__bench [0] $end
$var wire 1 X" o_data_1_30__bench [0] $end
$var wire 1 Y" o_data_1_31__bench [0] $end
$var wire 1 Z" o_data_1_32__bench [0] $end
$var wire 1 [" o_data_1_33__bench [0] $end
$var wire 1 \" o_data_1_34__bench [0] $end
$var wire 1 ]" o_valid_1_bench [0] $end
$var wire 1 ^" o_vch_1_bench [0] $end
$var wire 1 _" o_ack_1_0__bench [0] $end
$var wire 1 `" o_ack_1_1__bench [0] $end
$var wire 1 a" o_lck_1_0__bench [0] $end
$var wire 1 b" o_lck_1_1__bench [0] $end
$var wire 1 c" o_rdy_1_0__bench [0] $end
$var wire 1 d" o_rdy_1_1__bench [0] $end
$var reg 1 e" o_data_0_0__flag [0:0] $end
$var reg 1 f" o_data_0_1__flag [0:0] $end
$var reg 1 g" o_data_0_2__flag [0:0] $end
$var reg 1 h" o_data_0_3__flag [0:0] $end
$var reg 1 i" o_data_0_4__flag [0:0] $end
$var reg 1 j" o_data_0_5__flag [0:0] $end
$var reg 1 k" o_data_0_6__flag [0:0] $end
$var reg 1 l" o_data_0_7__flag [0:0] $end
$var reg 1 m" o_data_0_8__flag [0:0] $end
$var reg 1 n" o_data_0_9__flag [0:0] $end
$var reg 1 o" o_data_0_10__flag [0:0] $end
$var reg 1 p" o_data_0_11__flag [0:0] $end
$var reg 1 q" o_data_0_12__flag [0:0] $end
$var reg 1 r" o_data_0_13__flag [0:0] $end
$var reg 1 s" o_data_0_14__flag [0:0] $end
$var reg 1 t" o_data_0_15__flag [0:0] $end
$var reg 1 u" o_data_0_16__flag [0:0] $end
$var reg 1 v" o_data_0_17__flag [0:0] $end
$var reg 1 w" o_data_0_18__flag [0:0] $end
$var reg 1 x" o_data_0_19__flag [0:0] $end
$var reg 1 y" o_data_0_20__flag [0:0] $end
$var reg 1 z" o_data_0_21__flag [0:0] $end
$var reg 1 {" o_data_0_22__flag [0:0] $end
$var reg 1 |" o_data_0_23__flag [0:0] $end
$var reg 1 }" o_data_0_24__flag [0:0] $end
$var reg 1 ~" o_data_0_25__flag [0:0] $end
$var reg 1 !# o_data_0_26__flag [0:0] $end
$var reg 1 "# o_data_0_27__flag [0:0] $end
$var reg 1 ## o_data_0_28__flag [0:0] $end
$var reg 1 $# o_data_0_29__flag [0:0] $end
$var reg 1 %# o_data_0_30__flag [0:0] $end
$var reg 1 &# o_data_0_31__flag [0:0] $end
$var reg 1 '# o_data_0_32__flag [0:0] $end
$var reg 1 (# o_data_0_33__flag [0:0] $end
$var reg 1 )# o_data_0_34__flag [0:0] $end
$var reg 1 *# o_valid_0_flag [0:0] $end
$var reg 1 +# o_vch_0_flag [0:0] $end
$var reg 1 ,# o_ack_0_0__flag [0:0] $end
$var reg 1 -# o_ack_0_1__flag [0:0] $end
$var reg 1 .# o_lck_0_0__flag [0:0] $end
$var reg 1 /# o_lck_0_1__flag [0:0] $end
$var reg 1 0# o_rdy_0_0__flag [0:0] $end
$var reg 1 1# o_rdy_0_1__flag [0:0] $end
$var reg 1 2# o_data_1_0__flag [0:0] $end
$var reg 1 3# o_data_1_1__flag [0:0] $end
$var reg 1 4# o_data_1_2__flag [0:0] $end
$var reg 1 5# o_data_1_3__flag [0:0] $end
$var reg 1 6# o_data_1_4__flag [0:0] $end
$var reg 1 7# o_data_1_5__flag [0:0] $end
$var reg 1 8# o_data_1_6__flag [0:0] $end
$var reg 1 9# o_data_1_7__flag [0:0] $end
$var reg 1 :# o_data_1_8__flag [0:0] $end
$var reg 1 ;# o_data_1_9__flag [0:0] $end
$var reg 1 <# o_data_1_10__flag [0:0] $end
$var reg 1 =# o_data_1_11__flag [0:0] $end
$var reg 1 ># o_data_1_12__flag [0:0] $end
$var reg 1 ?# o_data_1_13__flag [0:0] $end
$var reg 1 @# o_data_1_14__flag [0:0] $end
$var reg 1 A# o_data_1_15__flag [0:0] $end
$var reg 1 B# o_data_1_16__flag [0:0] $end
$var reg 1 C# o_data_1_17__flag [0:0] $end
$var reg 1 D# o_data_1_18__flag [0:0] $end
$var reg 1 E# o_data_1_19__flag [0:0] $end
$var reg 1 F# o_data_1_20__flag [0:0] $end
$var reg 1 G# o_data_1_21__flag [0:0] $end
$var reg 1 H# o_data_1_22__flag [0:0] $end
$var reg 1 I# o_data_1_23__flag [0:0] $end
$var reg 1 J# o_data_1_24__flag [0:0] $end
$var reg 1 K# o_data_1_25__flag [0:0] $end
$var reg 1 L# o_data_1_26__flag [0:0] $end
$var reg 1 M# o_data_1_27__flag [0:0] $end
$var reg 1 N# o_data_1_28__flag [0:0] $end
$var reg 1 O# o_data_1_29__flag [0:0] $end
$var reg 1 P# o_data_1_30__flag [0:0] $end
$var reg 1 Q# o_data_1_31__flag [0:0] $end
$var reg 1 R# o_data_1_32__flag [0:0] $end
$var reg 1 S# o_data_1_33__flag [0:0] $end
$var reg 1 T# o_data_1_34__flag [0:0] $end
$var reg 1 U# o_valid_1_flag [0:0] $end
$var reg 1 V# o_vch_1_flag [0:0] $end
$var reg 1 W# o_ack_1_0__flag [0:0] $end
$var reg 1 X# o_ack_1_1__flag [0:0] $end
$var reg 1 Y# o_lck_1_0__flag [0:0] $end
$var reg 1 Z# o_lck_1_1__flag [0:0] $end
$var reg 1 [# o_rdy_1_0__flag [0:0] $end
$var reg 1 \# o_rdy_1_1__flag [0:0] $end
$var integer 32 ]# nb_error $end
$var reg 1 ^# sim_start [0:0] $end
$upscope $end
$enddefinitions $end
#0
$dumpvars
b0 ^#
b0 !
b0 "
b0 #
b1 $
b1 %
b1 &
b0 '
b0 (
b1 )
b1 *
b1 +
b1 ,
b0 -
b0 .
b1 /
b1 0
b0 1
b0 2
b1 3
b0 4
b1 5
b0 6
b1 7
b1 8
b0 9
b0 :
b0 ;
b0 <
b0 =
b1 >
b0 ?
b1 @
b0 A
b0 B
b0 C
b1 D
b0 E
b0 F
b1 G
b0 H
b1 I
b1 J
b1 K
b1 L
b1 M
b0 N
b1 O
b1 P
b0 Q
b0 R
b1 S
b0 T
b1 U
b1 V
b1 W
b1 X
b1 Y
b0 Z
b1 [
b0 \
b1 ]
b0 ^
b1 _
b1 `
b0 a
b0 b
b0 c
b0 d
b1 e
b1 f
b0 g
b0 h
b1 i
b1 j
b1 k
b1 l
b1 m
b0 n
b0 o
b0 p
b0 q
b1 r
b0 s
b0 t
b0 e"
b0 f"
b0 g"
b0 h"
b0 i"
b0 j"
b0 k"
b0 l"
b0 m"
b0 n"
b0 o"
b0 p"
b0 q"
b0 r"
b0 s"
b0 t"
b0 u"
b0 v"
b0 w"
b0 x"
b0 y"
b0 z"
b0 {"
b0 |"
b0 }"
b0 ~"
b0 !#
b0 "#
b0 ##
b0 $#
b0 %#
b0 &#
b0 '#
b0 (#
b0 )#
b0 *#
b0 +#
b0 ,#
b0 -#
b0 .#
b0 /#
b0 0#
b0 1#
b0 2#
b0 3#
b0 4#
b0 5#
b0 6#
b0 7#
b0 8#
b0 9#
b0 :#
b0 ;#
b0 <#
b0 =#
b0 >#
b0 ?#
b0 @#
b0 A#
b0 B#
b0 C#
b0 D#
b0 E#
b0 F#
b0 G#
b0 H#
b0 I#
b0 J#
b0 K#
b0 L#
b0 M#
b0 N#
b0 O#
b0 P#
b0 Q#
b0 R#
b0 S#
b0 T#
b0 U#
b0 V#
b0 W#
b0 X#
b0 Y#
b0 Z#
b0 [#
b0 \#
b0 ]#
xu
xv
xw
xx
xy
xz
x{
x|
x}
x~
x!!
x"!
x#!
x$!
x%!
x&!
x'!
x(!
x)!
x*!
x+!
x,!
x-!
x.!
x/!
x0!
x1!
x2!
x3!
x4!
x5!
x6!
x7!
x8!
x9!
x:!
x;!
x<!
x=!
x>!
x?!
x@!
xA!
xB!
xC!
xD!
xE!
xF!
xG!
xH!
xI!
xJ!
xK!
xL!
xM!
xN!
xO!
xP!
xQ!
xR!
xS!
xT!
xU!
xV!
xW!
xX!
xY!
xZ!
x[!
x\!
x]!
x^!
x_!
x`!
xa!
xb!
xc!
xd!
xe!
xf!
xg!
xh!
xi!
xj!
xk!
xl!
xm!
xn!
xo!
xp!
xq!
xr!
xs!
xt!
xu!
xv!
xw!
xx!
xy!
xz!
x{!
x|!
x}!
x~!
x!"
x""
x#"
x$"
x%"
x&"
x'"
x("
x)"
x*"
x+"
x,"
x-"
x."
x/"
x0"
x1"
x2"
x3"
x4"
x5"
x6"
x7"
18"
09"
x:"
x;"
x<"
x="
x>"
x?"
x@"
xA"
xB"
xC"
xD"
xE"
xF"
xG"
xH"
xI"
xJ"
xK"
xL"
xM"
xN"
xO"
xP"
xQ"
xR"
xS"
xT"
xU"
xV"
xW"
xX"
xY"
xZ"
x["
x\"
x]"
x^"
x_"
x`"
xa"
xb"
1c"
0d"
$end
#1000
b1 !
03"
1t!
1u!
1v!
1w!
0x!
0y!
1z!
1{!
0|!
0}!
02"
1~!
0!"
1""
0#"
1$"
1%"
0&"
0'"
0("
0)"
0m!
0*"
1+"
0,"
1-"
0."
0/"
00"
11"
16"
17"
0n!
14"
05"
0^"
0]"
1:"
1;"
1<"
0="
1>"
1?"
1o!
0@"
0A"
1B"
0C"
1D"
1E"
1F"
1G"
1H"
0I"
1p!
1J"
0K"
1L"
0M"
1N"
1O"
0P"
0Q"
0R"
0S"
1q!
1T"
1U"
0V"
0W"
1X"
1Y"
1Z"
1["
1\"
1a"
0r!
0b"
0_"
0`"
0s!
0[!
1J!
0f!
1}
0K!
1F!
0I!
1L!
1w
0v
1k!
1$!
1@!
1`!
0Y!
0e!
1\!
0X!
01!
00!
1b!
1O!
1N!
0{
1-!
1R!
0U!
1d!
1M!
1W!
0z
0=!
1a!
0^!
0_!
1*!
1B!
0S!
0j!
1?!
0Z!
1P!
1<!
0h!
1(!
02!
13!
0g!
07!
0Q!
0.!
1>!
1c!
0&!
0'!
0"!
1|
1x
1~
1T!
06!
1V!
1]!
1!!
0/!
0+!
1D!
0:!
0)!
1y
1G!
1,!
15!
1C!
0l!
08!
0A!
0E!
1%!
04!
0#!
0H!
1i!
0u
19!
0;!
#2000
b0 !
b1 "
b0 %
b0 &
b1 '
b0 )
b0 *
b0 +
b1 .
b0 0
b1 2
b0 3
b1 4
b1 6
b0 8
b1 9
b1 <
b1 =
b1 A
b1 B
b1 C
b1 E
b0 I
b0 J
b0 L
b0 P
b0 S
b1 T
b0 U
b0 V
b0 X
b0 [
b1 \
b0 _
b1 a
b1 c
b1 d
b1 h
b0 i
b0 j
b0 m
b1 n
b1 o
b1 q
b1 s
#3000
b1 !
1`"
1b"
1r!
0\"
0Y"
0X"
1W"
0q!
1S"
1R"
1P"
0N"
1K"
0J"
0p!
0G"
0E"
0D"
1C"
0B"
0?"
0;"
1]"
1^"
07"
06"
10"
1/"
1."
1*"
1m!
1)"
1&"
0%"
1#"
1!"
0~!
12"
1}!
0{!
1y!
0v!
0u!
0t!
1[!
0J!
1f!
1K!
0}
0L!
0`!
1e!
1X!
11!
0O!
0-!
0R!
0d!
0M!
1z
0a!
1_!
1S!
1j!
0?!
1Z!
1h!
0(!
12!
17!
1.!
0>!
1'!
0|
0x
0~
16!
0V!
1+!
1:!
1)!
0y
0G!
0C!
18!
0%!
1#!
1u
#4000
b0 !
b0 '
b0 ,
b1 0
b0 2
b0 6
b1 8
b0 >
b0 @
b0 A
b0 C
b1 I
b1 J
b0 K
b1 L
b1 N
b1 Q
b1 S
b0 T
b0 W
b1 X
b0 Y
b1 Z
b0 \
b1 ^
b1 _
b0 a
b1 b
b0 e
b0 f
b1 g
b1 i
b0 n
b0 q
#5000
b1 !
1V"
0U"
0T"
1Q"
1M"
1I"
0H"
0F"
1@"
1="
0:"
0-"
0+"
0w!
1{!
0}!
0#"
1%"
0."
00"
16"
17"
0]"
1;"
1B"
0C"
1G"
0K"
1N"
0P"
1X"
0r!
0`"
1J!
0K!
1`!
1Y!
0e!
0\!
0X!
1O!
0N!
1-!
1U!
0z
1^!
0B!
0S!
1?!
0P!
0h!
03!
1Q!
1>!
0'!
06!
1V!
0]!
0!!
0+!
05!
1C!
08!
1E!
1%!
1H!
#6000
b0 !
b0 "
b1 #
b0 $
b1 '
b1 (
b1 )
b1 *
b1 +
b1 ,
b0 /
b1 2
b0 5
b1 6
b0 7
b0 9
b1 :
b0 <
b0 =
b1 >
b1 A
b1 C
b1 H
b0 I
b1 P
b0 Q
b1 R
b0 S
b1 T
b1 U
b1 V
b1 W
b0 X
b1 Y
b1 [
b1 \
b0 ]
b0 ^
b0 _
b1 a
b0 b
b0 c
b0 d
b1 e
b1 f
b0 h
b0 i
b1 j
b0 k
b0 l
b0 o
b1 q
b0 s
#7000
b1 !
0b"
0^"
0["
0Z"
1Y"
0W"
0S"
0R"
0L"
1J"
1E"
1D"
1A"
1?"
15"
0*"
0)"
1'"
0&"
0$"
0""
0z!
1v!
1u!
1t!
1s!
0o!
1n!
0m!
1`"
1r!
0X"
1P"
0N"
1K"
0G"
1C"
0B"
06"
10"
1."
1#"
1}!
1w!
1+"
0@"
1F"
1H"
0M"
0Q"
1T"
1U"
0[!
0J!
0f!
1K!
1}
1I!
1L!
0w
1v
0$!
0`!
0Y!
1\!
1X!
01!
0b!
0O!
1N!
1{
1R!
0U!
1M!
1z
1=!
1a!
0*!
0_!
1S!
0j!
0Z!
1P!
1h!
02!
13!
0.!
0>!
0c!
1'!
1|
1~
0T!
16!
0V!
1]!
1!!
1/!
1+!
1G!
0,!
18!
0H!
0u
#8000
b0 !
b0 #
b1 %
b1 &
b0 *
b0 +
b0 ,
b1 /
b1 1
b0 4
b0 8
b1 <
b1 =
b1 ?
b0 A
b0 B
b0 G
b0 H
b0 J
b1 K
b0 N
b0 O
b0 P
b1 Q
b0 R
b1 S
b0 T
b1 X
b0 Y
b0 \
b1 ^
b0 `
b0 a
b1 b
b0 f
b1 h
b1 i
b0 j
b1 k
b1 m
b1 n
b1 o
b0 q
b0 r
#9000
b1 !
0a"
1]"
1\"
0O"
0>"
0="
1:"
07"
04"
0/"
1,"
0%"
0!"
1|!
1q!
1p!
0U"
1Q"
1M"
0H"
1@"
0w!
0."
1B"
0C"
1G"
0K"
0P"
1X"
0`"
0n!
0u!
0v!
1z!
1)"
1*"
05"
0?"
0A"
1W"
0Y"
1Z"
1^"
1J!
1f!
0}
0K!
0F!
0I!
0v
1$!
1`!
1Y!
1e!
0X!
11!
1b!
1O!
0-!
1U!
1d!
0W!
0=!
0a!
1_!
1B!
0S!
0?!
0P!
0<!
0h!
12!
07!
1&!
1x
0~
06!
0]!
0!!
0)!
1y
0G!
0E!
14!
1H!
0i!
#10000
b0 !
b1 $
b1 *
b1 -
b0 0
b1 4
b1 7
b1 8
b0 >
b0 ?
b1 A
b0 C
b0 D
b0 E
b1 G
b0 L
b1 N
b1 P
b0 Q
b0 S
b0 Z
b1 ]
b1 _
b1 a
b1 d
b1 f
b0 h
b0 i
b1 l
b0 n
b1 r
b1 s
#11000
b1 !
1b"
1["
1S"
1N"
1L"
0I"
0;"
02"
01"
00"
0+"
1$"
0{!
1x!
1o!
0W"
1?"
1u!
0X"
1P"
0B"
1."
0@"
1U"
1!"
1%"
0,"
14"
1="
0]"
1a"
1[!
0J!
1}
1w
0`!
0e!
1X!
1-!
0_!
1j!
1<!
03!
0Q!
1c!
1"!
1T!
16!
1V!
1]!
0:!
1)!
1G!
1,!
0C!
08!
1E!
0%!
04!
0H!
1i!
09!
#12000
b0 !
b1 #
b0 $
b0 &
b0 )
b1 +
b1 ,
b0 -
b0 .
b0 /
b1 0
b0 1
b0 2
b1 3
b0 4
b0 7
b0 8
b1 9
b0 <
b0 =
b1 >
b1 ?
b1 B
b1 D
b1 F
b1 H
b1 J
b0 N
b1 O
b0 P
b1 R
b1 S
b1 T
b0 V
b0 W
b1 Y
b1 Z
b0 [
b0 _
b1 `
b1 c
b0 d
b0 f
b0 g
b1 i
b0 k
b0 m
b1 n
b0 o
b0 s
#13000
b1 !
0^"
0\"
0Z"
0V"
1R"
1O"
0J"
1H"
0F"
0E"
1C"
1A"
1>"
17"
15"
13"
1/"
0*"
0)"
1&"
1~!
0}!
0|!
0z!
0y!
1w!
1v!
0t!
0q!
1n!
1]"
0="
1,"
0%"
0!"
0U"
1B"
1X"
0?"
0o!
0x!
1{!
0$"
1+"
11"
1I"
0N"
0S"
0b"
0[!
1J!
0f!
1K!
1F!
1I!
0w
1v
0$!
1`!
1e!
01!
0b!
0N!
0-!
0R!
0d!
0M!
1W!
1=!
0^!
0j!
1?!
1Z!
1P!
1(!
02!
13!
17!
1Q!
1.!
0&!
0'!
0"!
0|
1~
0V!
0]!
1!!
0)!
0y
0G!
0,!
0E!
1%!
14!
0#!
19!
1;!
